{
  "rewrites": [
    {
      "source": "/:file*.js",
      "destination": "/:file.js"
    },
    {
      "source": "/:file*.svg",
      "destination": "/:file.svg"
    },
    {
      "source": "/**",
      "destination": "/index.html"
    }
  ]
}