<svg width="16" height="16" viewBox="0 0 16 16" fill="none" xmlns="http://www.w3.org/2000/svg">
<rect x="16" y="16" width="16" height="16" rx="8" transform="rotate(-180 16 16)" fill="white"/>
<path fill-rule="evenodd" clip-rule="evenodd" d="M16 8C16 12.4183 12.4183 16 8 16C3.5837 15.9952 0.004776 12.4163 0 8C0 3.58172 3.58172 0 8 0C12.4183 0 16 3.58172 16 8ZM7.71097 4.17066L4.28497 10.1653V10.168C4.22598 10.2712 4.22648 10.3981 4.28626 10.5009C4.34604 10.6037 4.45605 10.6669 4.57497 10.6667L11.4256 10.6667C11.5454 10.6674 11.6563 10.6039 11.7163 10.5002C11.7762 10.3966 11.776 10.2687 11.7156 10.1653L8.28963 4.17066C8.23026 4.06688 8.11986 4.00285 8.0003 4.00285C7.88074 4.00285 7.77034 4.06688 7.71097 4.17066Z" fill="#4F6679"/>
</svg>
