<svg width="18" height="18" viewBox="0 0 18 18" fill="none" xmlns="http://www.w3.org/2000/svg">
<path fill-rule="evenodd" clip-rule="evenodd" d="M9 16.5C13.1421 16.5 16.5 13.1421 16.5 9C16.5 4.85786 13.1421 1.5 9 1.5C4.85786 1.5 1.5 4.85786 1.5 9C1.5 13.1421 4.85786 16.5 9 16.5Z" stroke="#4F6679" stroke-width="1.5" stroke-linecap="round" stroke-linejoin="round"/>
<path fill-rule="evenodd" clip-rule="evenodd" d="M13 7.5H10.5V5C10.5 4.72386 10.2761 4.5 10 4.5H8C7.72386 4.5 7.5 4.72386 7.5 5V7.5H5C4.72386 7.5 4.5 7.72386 4.5 8V10C4.5 10.2761 4.72386 10.5 5 10.5H7.5V13C7.5 13.2761 7.72386 13.5 8 13.5H10C10.2761 13.5 10.5 13.2761 10.5 13V10.5H13C13.2761 10.5 13.5 10.2761 13.5 10V8C13.5 7.72386 13.2761 7.5 13 7.5Z" stroke="#4F6679" stroke-width="1.5" stroke-linecap="round" stroke-linejoin="round"/>
</svg>
