<svg width="173" height="51" viewBox="0 0 173 51" fill="none" xmlns="http://www.w3.org/2000/svg">
<path d="M86.4876 34.5257H72.2646L88.939 11.5934L88.9645 11.5424C89.4752 10.8018 89.705 10.0868 89.705 9.42279C89.705 7.30322 88.4538 6.02637 86.36 6.02637H65.8554C63.6849 6.02637 62.3826 7.27768 62.3826 9.37172C62.3826 11.5424 63.6849 12.8448 65.8554 12.8448H79.5421L62.8933 35.8025C62.3571 36.492 62.0762 37.2071 62.0762 37.8966C62.0762 40.0417 63.404 41.3441 65.6 41.3441H86.4621C88.607 41.3441 89.9093 40.0672 89.9093 37.8966C89.9093 35.8025 88.6326 34.5257 86.4876 34.5257Z" fill="#05304E"/>
<path d="M104.9 16.8799C101.197 16.8799 98.1332 18.1057 95.784 20.5572C93.5114 22.9322 92.3623 25.8945 92.3623 29.4186C92.3623 32.9171 93.5114 35.8794 95.784 38.2544C98.1332 40.7059 101.197 41.9572 104.9 41.9572C108.603 41.9572 111.667 40.7059 114.016 38.2544C116.289 35.8794 117.438 32.9171 117.438 29.4186C117.438 25.8945 116.289 22.9322 114.016 20.5572C111.641 18.1312 108.603 16.8799 104.9 16.8799ZM108.858 33.7343C107.888 34.909 106.585 35.4708 104.9 35.4708C103.189 35.4708 101.912 34.909 100.942 33.7343C100.023 32.6107 99.5632 31.2062 99.5632 29.4186C99.5632 27.6054 100.023 26.2009 100.942 25.0773C101.912 23.9026 103.215 23.3408 104.9 23.3408C106.611 23.3408 107.888 23.9026 108.858 25.0773C109.777 26.2009 110.237 27.6054 110.237 29.4186C110.262 31.2062 109.803 32.6107 108.858 33.7343Z" fill="#05304E"/>
<path d="M132.043 16.8799C128.34 16.8799 125.301 18.1057 122.927 20.5572C120.654 22.9322 119.505 25.8945 119.505 29.4186C119.505 32.9171 120.654 35.8794 122.927 38.2544C125.276 40.7059 128.34 41.9572 132.043 41.9572C135.745 41.9572 138.809 40.7059 141.159 38.2544C143.431 35.8794 144.58 32.9171 144.58 29.4186C144.58 25.8945 143.431 22.9322 141.159 20.5572C138.784 18.1312 135.72 16.8799 132.043 16.8799ZM136.001 33.7343C135.03 34.909 133.728 35.4708 132.043 35.4708C130.332 35.4708 129.055 34.909 128.085 33.7343C127.14 32.6107 126.706 31.2062 126.706 29.4186C126.706 27.6054 127.165 26.2009 128.085 25.0773C129.055 23.9026 130.357 23.3408 132.043 23.3408C133.753 23.3408 135.03 23.9026 136.001 25.0773C136.92 26.2009 137.379 27.6054 137.379 29.4186C137.379 31.2062 136.92 32.6107 136.001 33.7343Z" fill="#05304E"/>
<path d="M169.655 20.4551C167.433 18.0801 164.701 16.8799 161.458 16.8799C158.751 16.8799 156.504 17.646 154.742 19.1271C154.257 17.7992 153.108 17.0586 151.474 17.0586C149.303 17.0586 148.001 18.3866 148.001 20.6338V47.3456C148.001 49.5928 149.329 50.9207 151.576 50.9207C153.823 50.9207 155.176 49.5928 155.176 47.3456V39.8377C156.887 41.2422 159.007 41.9572 161.458 41.9572C164.701 41.9572 167.459 40.7825 169.629 38.4587C171.876 36.0837 173 33.0448 173 29.4186C173.025 25.8689 171.876 22.8555 169.655 20.4551ZM156.708 25.0517C157.73 23.8515 158.981 23.2386 160.539 23.2386C162.147 23.2386 163.399 23.7749 164.343 24.873C165.339 25.9966 165.824 27.4777 165.824 29.4186C165.824 31.3338 165.339 32.7894 164.343 33.9386C163.399 35.0367 162.147 35.573 160.539 35.573C158.981 35.573 157.73 34.9856 156.708 33.7854C155.687 32.5596 155.176 31.1551 155.176 29.4186C155.176 27.682 155.687 26.252 156.708 25.0517Z" fill="#05304E"/>
<path d="M31.8677 0H1.09801C0.485165 0 0 0.485203 0 1.09809V31.8702C0 40.9614 7.37962 48.3416 16.4701 48.3416H25.6882V41.1657H18.6406C12.3079 41.1657 7.20088 36.0327 7.20088 29.7251V8.29953C7.20088 7.8654 7.53283 7.53342 7.96693 7.53342H29.3653C35.698 7.53342 40.805 12.6664 40.805 18.974V29.6996C40.805 32.9172 39.4771 35.8284 37.3322 37.9225L29.2376 48.3416H31.8932C40.9837 48.3416 48.3633 40.9614 48.3633 31.8702V16.4714C48.3378 7.3802 40.9837 0 31.8677 0Z" fill="#EE9847"/>
<path d="M29.5182 28.9334H22.113L30.9481 16.8033L30.9737 16.7778C31.2545 16.3436 31.3822 15.9606 31.3822 15.5775C31.3822 14.3773 30.6417 13.6367 29.4671 13.6367H18.436C17.2103 13.6367 16.4442 14.3773 16.4442 15.552C16.4442 16.7778 17.2103 17.5439 18.436 17.5439H25.5602L16.7506 29.6995C16.4442 30.1081 16.291 30.4911 16.291 30.8997C16.291 32.1 17.0571 32.8661 18.3083 32.8661H29.5182C30.7183 32.8661 31.4844 32.1255 31.4844 30.8997C31.4844 29.674 30.7183 28.9334 29.5182 28.9334Z" fill="#05304E"/>
</svg>
