<svg width="18" height="16" viewBox="0 0 18 16" fill="none" xmlns="http://www.w3.org/2000/svg">
<path d="M1.5 2.00867H16.5" stroke="#4F6679" stroke-width="1.5" stroke-linecap="round" stroke-linejoin="round"/>
<path d="M1.5 5.00867H16.5" stroke="#4F6679" stroke-width="1.5" stroke-linecap="round" stroke-linejoin="round"/>
<path d="M1.5 8.00867H16.5" stroke="#4F6679" stroke-width="1.5" stroke-linecap="round" stroke-linejoin="round"/>
<path d="M1.5 11.0087H16.5" stroke="#4F6679" stroke-width="1.5" stroke-linecap="round" stroke-linejoin="round"/>
<path d="M1.5 14.0087H13.5" stroke="#4F6679" stroke-width="1.5" stroke-linecap="round" stroke-linejoin="round"/>
</svg>
