<svg width="12" height="12" viewBox="0 0 12 12" fill="none" xmlns="http://www.w3.org/2000/svg">
<path d="M10.9565 1.5H9.52174C9.4497 1.5 9.3913 1.44404 9.3913 1.375V0.5C9.3913 0.223858 9.15771 0 8.86957 0C8.58142 0 8.34783 0.223858 8.34783 0.5V2.875C8.34783 3.08211 8.17263 3.25 7.95652 3.25C7.74041 3.25 7.56522 3.08211 7.56522 2.875V1.75C7.56522 1.61193 7.44842 1.5 7.30435 1.5H4.04348C3.97164 1.5 3.91333 1.44434 3.91304 1.3755V0.5C3.91304 0.223858 3.67945 0 3.3913 0C3.10316 0 2.86957 0.223858 2.86957 0.5V2.875C2.86957 3.08211 2.69437 3.25 2.47826 3.25C2.26215 3.25 2.08696 3.08211 2.08696 2.875V1.75C2.08696 1.61193 1.97016 1.5 1.82609 1.5H1.04348C0.467181 1.5 0 1.94772 0 2.5V4V5H1.04348H10.9565H12V4V2.5C12 1.94772 11.5328 1.5 10.9565 1.5Z" fill="#DCE0E4"/>
<path d="M0 6H12V11C12 11.5523 11.5523 12 11 12H1C0.447715 12 0 11.5523 0 11V6Z" fill="#DCE0E4"/>
</svg>
