<svg width="12" height="12" viewBox="0 0 12 12" fill="none" xmlns="http://www.w3.org/2000/svg">
<path d="M6.00013 6.29836C7.48602 6.29836 8.6907 4.88841 8.6907 3.14916C8.6907 0.737308 7.48607 0 6.00013 0C4.51414 0 3.30957 0.737308 3.30957 3.14916C3.3096 4.88841 4.51417 6.29836 6.00013 6.29836Z" fill="#DCE0E4"/>
<path d="M11.9414 10.9334L10.5839 7.8756C10.5219 7.73568 10.4128 7.61963 10.277 7.54895L8.17038 6.45231C8.12393 6.42817 8.06768 6.43287 8.02591 6.46448C7.43008 6.91514 6.72952 7.15334 6.00005 7.15334C5.27045 7.15334 4.56995 6.91514 3.97412 6.46448C3.93224 6.43287 3.87599 6.42817 3.82953 6.45231L1.72304 7.54895C1.58722 7.61963 1.47827 7.73562 1.41612 7.8756L0.0587029 10.9334C-0.034883 11.1442 -0.0157025 11.3854 0.110027 11.5788C0.235698 11.7721 0.448385 11.8875 0.678992 11.8875H11.321C11.5516 11.8875 11.7644 11.7721 11.89 11.5788C12.0157 11.3854 12.0349 11.1442 11.9414 10.9334Z" fill="#DCE0E4"/>
</svg>
